01. Combinational Circuits/4bit_Ripple_Carry_Adder/Waveforms/fulladd.vcd
$date
	Thu Jul 23 13:57:41 2026
$end
$version
	Icarus Verilog
$end
$timescale
	1ns
$end
$scope module fulladd_tb $end
$var wire 1 ! SUM $end
$var wire 1 " C_OUT $end
$var reg 1 # A $end
$var reg 1 $ B $end
$var reg 1 % C_IN $end
$scope module fa $end
$var wire 1 # a $end
$var wire 1 $ b $end
$var wire 1 & c1 $end
$var wire 1 ' c2 $end
$var wire 1 ( c3 $end
$var wire 1 % c_in $end
$var wire 1 " c_out $end
$var wire 1 ! sum $end
$upscope $end
$upscope $end
$enddefinitions $end
$comment Show the parameter values. $end
$dumpall
$end
#0
$dumpvars
0(
0'
0&
0%
0$
0#
0"
0!
$end
#2
1!
1%
#4
1&
0%
1$
#6
1"
0!
1(
1%
#8
0"
1!
0(
0%
0$
1#
#10
1"
0!
1(
1%
#12
0(
0&
1'
0%
1$
#14
1!
1%
